…
Prof. Trashwheel data cleaning

``` r
proftrashwheel_df = read_excel("./Trash_data.xlsx", sheet = "Professor Trash Wheel", range = cell_cols("A:N")) %>% 
  janitor::clean_names() %>% 
  drop_na() %>% 
  filter(!is.na(dumpster)) %>% 
   mutate(sports_balls = round(sports_balls),
         sports_balls = as.integer(sports_balls),
         dumpster = as.integer(dumpster),
         wheel_name = "Prof.trash")
proftrashwheel_df
```

    ## # A tibble: 71 × 15
    ##    dumpster month     year date                weight_…¹ volum…² plast…³ polys…⁴
    ##       <int> <chr>    <dbl> <dttm>                  <dbl>   <dbl>   <dbl>   <dbl>
    ##  1        1 January   2017 2017-01-02 00:00:00      1.79      15    1950    6080
    ##  2        2 January   2017 2017-01-30 00:00:00      1.58      15    9540   11230
    ##  3        3 February  2017 2017-02-26 00:00:00      2.32      18    8350    9210
    ##  4        4 February  2017 2017-02-26 00:00:00      3.72      15    8590    1030
    ##  5        5 February  2017 2017-02-28 00:00:00      1.45      15    7830    9950
    ##  6        6 March     2017 2017-03-30 00:00:00      1.71      15    8210   10340
    ##  7        7 April     2017 2017-04-01 00:00:00      1.82      15    9830   11020
    ##  8        8 April     2017 2017-04-20 00:00:00      2.37      15    9240    8760
    ##  9        9 May       2017 2017-05-10 00:00:00      2.64      15    9540    8810
    ## 10       10 May       2017 2017-05-26 00:00:00      2.78      15    8230    7800
    ## # … with 61 more rows, 7 more variables: cigarette_butts <dbl>,
    ## #   glass_bottles <dbl>, grocery_bags <dbl>, chip_bags <dbl>,
    ## #   sports_balls <int>, homes_powered <dbl>, wheel_name <chr>, and abbreviated
    ## #   variable names ¹​weight_tons, ²​volume_cubic_yards, ³​plastic_bottles,
    ## #   ⁴​polystyrene

Now, combine Prof Trash Wheel with the Mr. Trash Wheel dataset to
produce a single tidy dataset

``` r
combined = bind_rows(mrtrashwheel_df, proftrashwheel_df) %>% 
  janitor::clean_names() %>% 
  drop_na()

combined
```

    ## # A tibble: 524 × 15
    ##    dumpster month  year date                weight_tons volume…¹ plast…² polys…³
    ##       <int> <chr> <dbl> <dttm>                    <dbl>    <dbl>   <dbl>   <dbl>
    ##  1        1 May    2014 2014-05-16 00:00:00        4.31       18    1450    1820
    ##  2        2 May    2014 2014-05-16 00:00:00        2.74       13    1120    1030
    ##  3        3 May    2014 2014-05-16 00:00:00        3.45       15    2450    3100
    ##  4        4 May    2014 2014-05-17 00:00:00        3.1        15    2380    2730
    ##  5        5 May    2014 2014-05-17 00:00:00        4.06       18     980     870
    ##  6        6 May    2014 2014-05-20 00:00:00        2.71       13    1430    2140
    ##  7        7 May    2014 2014-05-21 00:00:00        1.91        8     910    1090
    ##  8        8 May    2014 2014-05-28 00:00:00        3.7        16    3580    4310
    ##  9        9 June   2014 2014-06-05 00:00:00        2.52       14    2400    2790
    ## 10       10 June   2014 2014-06-11 00:00:00        3.76       18    1340    1730
    ## # … with 514 more rows, 7 more variables: cigarette_butts <dbl>,
    ## #   glass_bottles <dbl>, grocery_bags <dbl>, chip_bags <dbl>,
    ## #   sports_balls <int>, homes_powered <dbl>, wheel_name <chr>, and abbreviated
    ## #   variable names ¹​volume_cubic_yards, ²​plastic_bottles, ³​polystyrene
…
